{
  "connection": "default",
  "collectionName": "tasks",
  "info": {
    "name": "tasks",
    "description": ""
  },
  "options": {
    "increments": true,
    "timestamps": true,
    "comment": ""
  },
  "attributes": {
    "responsible": {
      "model": "user",
      "via": "taskResponsible",
      "plugin": "users-permissions"
    },
    "tasksTypes": {
      "default": "",
      "type": "enumeration",
      "enum": [
        "Public",
        "Private",
        "Commercial"
      ]
    },
    "events": {
      "collection": "events",
      "via": "tasks"
    },
    "name": {
      "default": "",
      "type": "string"
    },
    "target": {
      "default": "",
      "type": "string"
    },
    "result": {
      "default": "",
      "type": "string"
    },
    "dateBegin": {
      "default": "",
      "type": "date"
    },
    "dateCreate": {
      "default": "",
      "type": "date"
    },
    "dateFinish": {
      "default": "",
      "type": "date"
    },
    "priority": {
      "default": "",
      "type": "enumeration",
      "enum": [
        "High",
        "Middle",
        "Low"
      ]
    },
    "expectedIncome": {
      "default": "",
      "type": "string"
    },
    "content": {
      "default": "",
      "type": "text"
    },
    "document": {
      "collection": "file",
      "via": "related",
      "plugin": "upload",
      "required": false
    },
    "author": {
      "model": "user",
      "via": "authorTask",
      "plugin": "users-permissions"
    }
  }
}